[
    {
        "id": 2,
        "name": "Krak\u00f3w\/Krakau - Kalwaria Zebrzydowska\/Kalwarya",
        "start": {
            "latitude": 50.0597234,
            "longitude": 19.9512076,
            "name": "Krak\u00f3w\/Krakau",
            "date": "04.04.2020",
            "id": "1002"
        },
        "end": {
            "latitude": 49.8671077,
            "longitude": 19.6736701,
            "name": "Kalwaria Zebrzydowska",
            "date": "05.04.2020",
            "id": 1003
        },
        "distance": "40 km",
        "climb": "140",
        "decent": "261",
        "organizer": "Barnaba",
        "description": ""
    },
    {
        "id": 3,
        "name": "Kalwaria Zebrzydowska - O\u015bwi\u0119cim\/Aushwitz",
        "start": {
            "latitude": 49.8671077,
            "longitude": 19.6736701,
            "name": "Kalwaria Zebrzydowska",
            "date": "05.04.2020",
            "id": "1003"
        },
        "end": {
            "latitude": 50.0376087,
            "longitude": 19.2486681,
            "name": "O\u015bwi\u0119cim\/Auschwitz",
            "date": "06.04.2020",
            "id": 1004
        },
        "distance": "46",
        "climb": "182",
        "decent": "282",
        "organizer": "Barnaba",
        "description": ""
    },
    {
        "id": 9,
        "name": "Ostrava (cz) - Jastrz\u0119bie-Zdr\u00f3j",
        "start": {
            "latitude": 49.8218807,
            "longitude": 18.2577052,
            "name": "Ostrava (cz)",
            "date": "10.04.2020",
            "id": "1009"
        },
        "end": {
            "latitude": 49.9518853,
            "longitude": 18.5964533,
            "name": "Jastrz\u0119bie-Zdr\u00f3j",
            "date": "11.04.2020",
            "id": 1010
        },
        "distance": "37",
        "climb": "233",
        "decent": "219",
        "organizer": "Barnaba",
        "description": ""
    },
    {
        "id": 10,
        "name": "Jastrz\u0119bie-Zdr\u00f3j - Rybnik",
        "start": {
            "latitude": 49.9518853,
            "longitude": 18.5964533,
            "name": "Jastrz\u0119bie-Zdr\u00f3j",
            "date": "11.04.2020",
            "id": "10010"
        },
        "end": {
            "latitude": 50.1012911,
            "longitude": 18.5436788,
            "name": "Rybnik",
            "date": "12.04.2020",
            "id": 10011
        },
        "distance": "23",
        "climb": "135",
        "decent": "122",
        "organizer": "Barnaba",
        "description": ""
    },
    {
        "id": 11,
        "name": "Rybnik - Tychy",
        "start": {
            "latitude": 50.1012911,
            "longitude": 18.5436788,
            "name": "Rybnik",
            "date": "12.04.2020",
            "id": "10011"
        },
        "end": {
            "latitude": 50.1186871,
            "longitude": 18.995402,
            "name": "Tychy",
            "date": "43934",
            "id": 10012
        },
        "distance": "41",
        "climb": "116",
        "decent": "115",
        "organizer": "Barnaba",
        "description": ""
    },
    {
        "id": 12,
        "name": "Tychy - Katowice",
        "start": {
            "latitude": 50.1186871,
            "longitude": 18.995402,
            "name": "Tychy",
            "date": "43934",
            "id": "10012"
        },
        "end": {
            "latitude": 50.2634643,
            "longitude": 19.0206941,
            "name": "Katowice",
            "date": "14.04.2020",
            "id": 10013
        },
        "distance": "22,7",
        "climb": "114",
        "decent": "107",
        "organizer": "Barnaba",
        "description": ""
    },
    {
        "id": 15,
        "name": "Toszek - Opole",
        "start": {
            "latitude": 50.4555605,
            "longitude": 18.5195869,
            "name": "Toszek",
            "date": "15.04.2020",
            "id": "10015"
        },
        "end": {
            "latitude": 50.6788299,
            "longitude": 17.8362461,
            "name": "Opole",
            "date": "16.04.2020",
            "id": 10016
        },
        "distance": "58",
        "climb": "84",
        "decent": "179",
        "organizer": "Barnaba",
        "description": ""
    },
    {
        "id": 16,
        "name": "Opole - Brzeg",
        "start": {
            "latitude": 50.6788299,
            "longitude": 17.8362461,
            "name": "Opole",
            "date": "16.04.2020",
            "id": "10016"
        },
        "end": {
            "latitude": 50.8597011,
            "longitude": 17.4651152,
            "name": "Brzeg",
            "date": "17.04.2020",
            "id": 10017
        },
        "distance": "41,7",
        "climb": "",
        "decent": "",
        "organizer": "Barnaba",
        "description": ""
    },
    {
        "id": 17,
        "name": "Brzeg - Breslau",
        "start": {
            "latitude": 50.8597011,
            "longitude": 17.4651152,
            "name": "Brzeg",
            "date": "17.04.2020",
            "id": "10017"
        },
        "end": {
            "latitude": 51.109553,
            "longitude": 17.032107,
            "name": "Breslau",
            "date": "18.04.2020",
            "id": 10018
        },
        "distance": "43",
        "climb": "",
        "decent": "",
        "organizer": "Barnaba",
        "description": ""
    },
    {
        "id": 18,
        "name": "Breslau - Brzeg dolny",
        "start": {
            "latitude": 51.109553,
            "longitude": 17.032107,
            "name": "Breslau",
            "date": "18.04.2020",
            "id": "10018"
        },
        "end": {
            "latitude": 51.2695262,
            "longitude": 16.7133541,
            "name": "Brzeg Dolny",
            "date": "19.04.2020",
            "id": 10019
        },
        "distance": "38,6",
        "climb": "65",
        "decent": "63",
        "organizer": "Barnaba",
        "description": ""
    },
    {
        "id": 19,
        "name": "Brzeg Dolny - Legnica",
        "start": {
            "latitude": 51.2695262,
            "longitude": 16.7133541,
            "name": "Brzeg Dolny",
            "date": "19.04.2020",
            "id": "10019"
        },
        "end": {
            "latitude": 51.1964808,
            "longitude": 16.0719656,
            "name": "Legnica",
            "date": "20.04.2020",
            "id": 10020
        },
        "distance": "47,4",
        "climb": "73",
        "decent": "65",
        "organizer": "Barnaba",
        "description": ""
    },
    {
        "id": 20,
        "name": "Legnica - Boles\u0142awiec",
        "start": {
            "latitude": 51.1964808,
            "longitude": 16.0719656,
            "name": "Legnica",
            "date": "20.04.2020",
            "id": "10020"
        },
        "end": {
            "latitude": 51.2659038,
            "longitude": 15.5307204,
            "name": "Boles\u0142awiec",
            "date": "21.04.2020",
            "id": 10021
        },
        "distance": "50",
        "climb": "198",
        "decent": "131",
        "organizer": "",
        "description": ""
    },
    {
        "id": 21,
        "name": "Boles\u0142awiec - G\u00f6rlitz",
        "start": {
            "latitude": 51.2659038,
            "longitude": 15.5307204,
            "name": "Boles\u0142awiec",
            "date": "21.04.2020",
            "id": "10021"
        },
        "end": {
            "latitude": 51.1462176,
            "longitude": 14.9927027,
            "name": "G\u00f6rlitz",
            "date": "22.04.2020",
            "id": 10022
        },
        "distance": "46,8",
        "climb": "197",
        "decent": "165",
        "organizer": "",
        "description": ""
    },
    {
        "id": 22,
        "name": "G\u00f6rlitz - Bautzen",
        "start": {
            "latitude": 51.1462176,
            "longitude": 14.9927027,
            "name": "G\u00f6rlitz",
            "date": "22.04.2020",
            "id": "10022"
        },
        "end": {
            "latitude": 51.156209,
            "longitude": 14.99048,
            "name": "Bautzen (fff)",
            "date": "23.04.2020",
            "id": 10023
        },
        "distance": "42km",
        "climb": "268m",
        "decent": "266m",
        "organizer": "Guido",
        "description": ""
    },
    {
        "id": 23,
        "name": "Bautzen (fff) - Dresden",
        "start": {
            "latitude": 51.156209,
            "longitude": 14.99048,
            "name": "Bautzen (fff)",
            "date": "23.04.2020",
            "id": "10023"
        },
        "end": {
            "latitude": 51.181699,
            "longitude": 14.423908,
            "name": "Dresden(pff, XR, fff)",
            "date": "24.04.2020",
            "id": 10024
        },
        "distance": "57km",
        "climb": "258m",
        "decent": "366m",
        "organizer": "Guido",
        "description": ""
    },
    {
        "id": 24,
        "name": "Dresden(pff, XR, fff) - ",
        "start": {
            "latitude": 51.181699,
            "longitude": 14.423908,
            "name": "Dresden(pff, XR, fff)",
            "date": "24.04.2020",
            "id": "10024"
        },
        "end": {
            "latitude": 51.048034,
            "longitude": 13.740379,
            "name": "Dresden(XR, fff)",
            "date": "25.04.2020",
            "id": 10025
        },
        "distance": "",
        "climb": "",
        "decent": "",
        "organizer": "Guido",
        "description": ""
    },
    {
        "id": 25,
        "name": "Dresden(XR, fff) - Jahnishausen",
        "start": {
            "latitude": 51.048034,
            "longitude": 13.740379,
            "name": "Dresden(XR, fff)",
            "date": "25.04.2020",
            "id": "10025"
        },
        "end": {
            "latitude": 51.272754,
            "longitude": 13.283723,
            "name": "Jahnishausen",
            "date": "26.04.2020",
            "id": 10026
        },
        "distance": "48km",
        "climb": "104m",
        "decent": "105m",
        "organizer": "Guido",
        "description": ""
    },
    {
        "id": 26,
        "name": "Jahnishausen - Ruhland",
        "start": {
            "latitude": 51.272754,
            "longitude": 13.283723,
            "name": "Jahnishausen",
            "date": "26.04.2020",
            "id": "10026"
        },
        "end": {
            "latitude": 51.456256,
            "longitude": 13.866675,
            "name": "Ruland",
            "date": "27.04.2020",
            "id": 10027
        },
        "distance": "55km",
        "climb": "128m",
        "decent": "140m",
        "organizer": "Guido",
        "description": ""
    },
    {
        "id": 27,
        "name": "Ruland - Hoyerswerda",
        "start": {
            "latitude": 51.456256,
            "longitude": 13.866675,
            "name": "Ruland",
            "date": "27.04.2020",
            "id": "10027"
        },
        "end": {
            "latitude": 51.43483,
            "longitude": 14.24324,
            "name": "Hoyerswerda(XR)",
            "date": "28.04.2020",
            "id": 10028
        },
        "distance": "36km",
        "climb": "44m",
        "decent": "27m",
        "organizer": "Guido",
        "description": ""
    },
    {
        "id": 30,
        "name": "Spremberg - Cottbus",
        "start": {
            "latitude": 51.571238,
            "longitude": 14.379171,
            "name": "Spremberg",
            "date": "30.04.2020",
            "id": "10030"
        },
        "end": {
            "latitude": 51.760757,
            "longitude": 14.331855,
            "name": "Cottbus (fff)",
            "date": "01.05.2020",
            "id": 10031
        },
        "distance": "24km",
        "climb": "38m",
        "decent": "65m",
        "organizer": "Guido",
        "description": ""
    },
    {
        "id": 31,
        "name": "Cottbus (fff) - Eisenh\u00fcttenstadt",
        "start": {
            "latitude": 51.760757,
            "longitude": 14.331855,
            "name": "Cottbus (fff)",
            "date": "01.05.2020",
            "id": "10031"
        },
        "end": {
            "latitude": 52.145719,
            "longitude": 14.629979,
            "name": "Eisenh\u00fcttenstadt",
            "date": "02.05.2020",
            "id": 10032
        },
        "distance": "57,3km",
        "climb": "200m",
        "decent": "220m",
        "organizer": "Guido",
        "description": ""
    },
    {
        "id": 32,
        "name": "Eisenh\u00fcttenstadt - F\u00fcrstenwalde",
        "start": {
            "latitude": 52.145719,
            "longitude": 14.629979,
            "name": "Eisenh\u00fcttenstadt",
            "date": "02.05.2020",
            "id": "10032"
        },
        "end": {
            "latitude": 52.358688,
            "longitude": 14.064115,
            "name": "F\u00fcrstenwalde (fff)",
            "date": "03.05.2020",
            "id": 10033
        },
        "distance": "56km",
        "climb": "260m",
        "decent": "250m",
        "organizer": "Guido",
        "description": ""
    },
    {
        "id": 33,
        "name": "F\u00fcrstenwalde (fff) - Berlin Adlershof",
        "start": {
            "latitude": 52.358688,
            "longitude": 14.064115,
            "name": "F\u00fcrstenwalde (fff)",
            "date": "03.05.2020",
            "id": "10033"
        },
        "end": {
            "latitude": 52.43887,
            "longitude": 13.54977,
            "name": "Berlin Adlershof",
            "date": "04.05.2020",
            "id": 10034
        },
        "distance": "45,2km",
        "climb": "160m",
        "decent": "170m",
        "organizer": "Guido",
        "description": ""
    },
    {
        "id": 36,
        "name": "Berlin (XR, fff) - Postdam",
        "start": {
            "latitude": 52.516181,
            "longitude": 13.376935,
            "name": "Berlin (XR, fff)",
            "date": "09.05.2020",
            "id": "10036"
        },
        "end": {
            "latitude": 52.405455,
            "longitude": 13.058247,
            "name": "Potsdam (XR, fff)",
            "date": "10.05.2020",
            "id": 10037
        },
        "distance": "31,5km",
        "climb": "80m",
        "decent": "77m",
        "organizer": "Priska",
        "description": ""
    },
    {
        "id": 37,
        "name": "Potsdam (XR, fff) - Bad Belzig",
        "start": {
            "latitude": 52.405455,
            "longitude": 13.058247,
            "name": "Potsdam (XR, fff)",
            "date": "10.05.2020",
            "id": "10037"
        },
        "end": {
            "latitude": 52.140562,
            "longitude": 12.586587,
            "name": "Bad Belzig (fff)",
            "date": "11.05.2020",
            "id": 10038
        },
        "distance": "52,4km",
        "climb": "131m",
        "decent": "81m",
        "organizer": "Priska",
        "description": ""
    },
    {
        "id": 38,
        "name": "Bad Belzig (fff) - Magdeburg",
        "start": {
            "latitude": 52.140562,
            "longitude": 12.586587,
            "name": "Bad Belzig (fff)",
            "date": "11.05.2020",
            "id": "10038"
        },
        "end": {
            "latitude": 52.131458,
            "longitude": 11.6401,
            "name": "Magdeburg (XR, fff)",
            "date": "12.05.2020",
            "id": 10039
        },
        "distance": "77,5km",
        "climb": "155m",
        "decent": "194m",
        "organizer": "Priska",
        "description": ""
    },
    {
        "id": 39,
        "name": "Magdeburg (XR, fff) - Calv\u00f6rde",
        "start": {
            "latitude": 52.131458,
            "longitude": 11.6401,
            "name": "Magdeburg (XR, fff)",
            "date": "12.05.2020",
            "id": "10039"
        },
        "end": {
            "latitude": 52.390348,
            "longitude": 11.295388,
            "name": "Calv\u00f6rde",
            "date": "13.05.2020",
            "id": 10040
        },
        "distance": "42km",
        "climb": "122m",
        "decent": "112m",
        "organizer": "Priska",
        "description": ""
    },
    {
        "id": 42,
        "name": "7 Linden - Wolfsburg",
        "start": {
            "latitude": 52.688895,
            "longitude": 11.141501,
            "name": "7 Linden",
            "date": "15.05.2020",
            "id": "10042"
        },
        "end": {
            "latitude": 52.420288,
            "longitude": 10.786177,
            "name": "Wolfsburg (fff)",
            "date": "16.05.2020",
            "id": 10043
        },
        "distance": "49km",
        "climb": "83m",
        "decent": "71m",
        "organizer": "",
        "description": ""
    },
    {
        "id": 43,
        "name": "Wolfsburg (fff) - Braunschweig",
        "start": {
            "latitude": 52.420288,
            "longitude": 10.786177,
            "name": "Wolfsburg (fff)",
            "date": "16.05.2020",
            "id": "10043"
        },
        "end": {
            "latitude": 52.26442,
            "longitude": 10.525154,
            "name": "Braunschweig (XR, fff)",
            "date": "17.05.2020",
            "id": 10044
        },
        "distance": "27,6km",
        "climb": "64m",
        "decent": "57m",
        "organizer": "",
        "description": ""
    },
    {
        "id": 44,
        "name": "Braunschweig (XR, fff) - HIldesheim",
        "start": {
            "latitude": 52.26442,
            "longitude": 10.525154,
            "name": "Braunschweig (XR, fff)",
            "date": "17.05.2020",
            "id": "10044"
        },
        "end": {
            "latitude": 52.152774,
            "longitude": 9.952023,
            "name": "Hildesheim (XR, fff)",
            "date": "18.05.2020",
            "id": 10045
        },
        "distance": "44km",
        "climb": "71m",
        "decent": "52m",
        "organizer": "",
        "description": ""
    },
    {
        "id": 45,
        "name": "Hildesheim (XR, fff) - Hannover",
        "start": {
            "latitude": 52.152774,
            "longitude": 9.952023,
            "name": "Hildesheim (XR, fff)",
            "date": "18.05.2020",
            "id": "10045"
        },
        "end": {
            "latitude": 52.371201,
            "longitude": 9.736379,
            "name": "Hannover (XR, fff)",
            "date": "19.05.2020",
            "id": 10046
        },
        "distance": "32km",
        "climb": "29m",
        "decent": "62m",
        "organizer": "",
        "description": ""
    },
    {
        "id": 46,
        "name": "Hannover (XR, fff) - Steinhude",
        "start": {
            "latitude": 52.371201,
            "longitude": 9.736379,
            "name": "Hannover (XR, fff)",
            "date": "19.05.2020",
            "id": "10046"
        },
        "end": {
            "latitude": 52.43369,
            "longitude": 9.32187,
            "name": "Steinhude",
            "date": "20.05.2020",
            "id": 10047
        },
        "distance": "32km",
        "climb": "54m",
        "decent": "67m",
        "organizer": "",
        "description": ""
    },
    {
        "id": 49,
        "name": "Steyerberg - Minden",
        "start": {
            "latitude": 52.567484,
            "longitude": 9.026332,
            "name": "Steyerberg",
            "date": "22.05.2020",
            "id": "10049"
        },
        "end": {
            "latitude": 52.28902,
            "longitude": 8.91814,
            "name": "Minden (XR, fff)",
            "date": "23.05.2020",
            "id": 10050
        },
        "distance": "40km",
        "climb": "67m",
        "decent": "40m",
        "organizer": "",
        "description": ""
    },
    {
        "id": 50,
        "name": "Minden (XR, fff) - Herford",
        "start": {
            "latitude": 52.28902,
            "longitude": 8.91814,
            "name": "Minden (XR, fff)",
            "date": "23.05.2020",
            "id": "10050"
        },
        "end": {
            "latitude": 52.11579,
            "longitude": 8.669395,
            "name": "Herford (XR, fff)",
            "date": "24.05.2020",
            "id": 10051
        },
        "distance": "37km",
        "climb": "98m",
        "decent": "77m",
        "organizer": "",
        "description": ""
    },
    {
        "id": 51,
        "name": "Herford (XR, fff) - Bielefeld",
        "start": {
            "latitude": 52.11579,
            "longitude": 8.669395,
            "name": "Herford (XR, fff)",
            "date": "24.05.2020",
            "id": "10051"
        },
        "end": {
            "latitude": 52.021089,
            "longitude": 8.535049,
            "name": "Bielefeld (XR, fff)",
            "date": "25.05.2020",
            "id": 10052
        },
        "distance": "16km",
        "climb": "77m",
        "decent": "35m",
        "organizer": "",
        "description": ""
    },
    {
        "id": 52,
        "name": "Bielefeld (XR, fff) - G\u00fctersloh",
        "start": {
            "latitude": 52.021089,
            "longitude": 8.535049,
            "name": "Bielefeld (XR, fff)",
            "date": "25.05.2020",
            "id": "10052"
        },
        "end": {
            "latitude": 51.909167,
            "longitude": 8.381332,
            "name": "G\u00fctersloh (fff)",
            "date": "26.05.2020",
            "id": 10053
        },
        "distance": "19km",
        "climb": "33m",
        "decent": "78m",
        "organizer": "",
        "description": ""
    },
    {
        "id": 53,
        "name": "G\u00fctersloh (fff) - M\u00fcnster",
        "start": {
            "latitude": 51.909167,
            "longitude": 8.381332,
            "name": "G\u00fctersloh (fff)",
            "date": "26.05.2020",
            "id": "10053"
        },
        "end": {
            "latitude": 51.9617,
            "longitude": 7.628439,
            "name": "M\u00fcnster (XR, fff)",
            "date": "27.05.2020",
            "id": 10054
        },
        "distance": "58km",
        "climb": "39m",
        "decent": "56m",
        "organizer": "",
        "description": ""
    },
    {
        "id": 56,
        "name": "Haltern am See - Dortmund",
        "start": {
            "latitude": 51.737736,
            "longitude": 7.184341,
            "name": "Haltern am See",
            "date": "29.05.2020",
            "id": "10056"
        },
        "end": {
            "latitude": 51.511364,
            "longitude": 7.465234,
            "name": "Dortmund (XR, fff)",
            "date": "30.05.2020",
            "id": 10057
        },
        "distance": "41,6km",
        "climb": "95m",
        "decent": "51m",
        "organizer": "",
        "description": ""
    },
    {
        "id": 57,
        "name": "Dortmund (XR, fff) - Bochum",
        "start": {
            "latitude": 51.511364,
            "longitude": 7.465234,
            "name": "Dortmund (XR, fff)",
            "date": "30.05.2020",
            "id": "10057"
        },
        "end": {
            "latitude": 51.482533,
            "longitude": 7.214935,
            "name": "Bochum (XR, fff)",
            "date": "31.05.2020",
            "id": 10058
        },
        "distance": "21km",
        "climb": "119m",
        "decent": "116m",
        "organizer": "",
        "description": ""
    },
    {
        "id": 58,
        "name": "Bochum (XR, fff) - Essen",
        "start": {
            "latitude": 51.482533,
            "longitude": 7.214935,
            "name": "Bochum (XR, fff)",
            "date": "31.05.2020",
            "id": "10058"
        },
        "end": {
            "latitude": 51.458363,
            "longitude": 7.016444,
            "name": "Essen (XR, fff)",
            "date": "01.06.2020",
            "id": 10059
        },
        "distance": "16km",
        "climb": "84m",
        "decent": "97m",
        "organizer": "",
        "description": ""
    },
    {
        "id": 59,
        "name": "Essen (XR, fff) - Duisburg",
        "start": {
            "latitude": 51.458363,
            "longitude": 7.016444,
            "name": "Essen (XR, fff)",
            "date": "01.06.2020",
            "id": "10059"
        },
        "end": {
            "latitude": 51.435402,
            "longitude": 6.761045,
            "name": "Duisburg (XR, fff)",
            "date": "02.06.2020",
            "id": 10060
        },
        "distance": "20,5km",
        "climb": "34m",
        "decent": "81m",
        "organizer": "",
        "description": ""
    },
    {
        "id": 60,
        "name": "Duisburg (XR, fff) - D\u00fcsseldorf (am Rhein entlang)",
        "start": {
            "latitude": 51.435402,
            "longitude": 6.761045,
            "name": "Duisburg (XR, fff)",
            "date": "02.06.2020",
            "id": "10060"
        },
        "end": {
            "latitude": 51.225976,
            "longitude": 6.771395,
            "name": "D\u00fcsseldorf (XR, fff)",
            "date": "03.06.2020",
            "id": 10061
        },
        "distance": "36,3km",
        "climb": "43m",
        "decent": "38m",
        "organizer": "",
        "description": ""
    },
    {
        "id": 61,
        "name": "D\u00fcsseldorf (XR, fff) - K\u00f6ln (am Rhein entlang)",
        "start": {
            "latitude": 51.225976,
            "longitude": 6.771395,
            "name": "D\u00fcsseldorf (XR, fff)",
            "date": "03.06.2020",
            "id": "10061"
        },
        "end": {
            "latitude": 50.938513,
            "longitude": 6.959629,
            "name": "K\u00f6ln",
            "date": "04.06.2020",
            "id": 10062
        },
        "distance": "48,1km",
        "climb": "84km",
        "decent": "71km",
        "organizer": "",
        "description": "Axel"
    },
    {
        "id": 62,
        "name": "K\u00f6ln - D\u00fcren",
        "start": {
            "latitude": 50.938513,
            "longitude": 6.959629,
            "name": "K\u00f6ln",
            "date": "04.06.2020",
            "id": "10062"
        },
        "end": {
            "latitude": 50.803311,
            "longitude": 6.482152,
            "name": "D\u00fcren",
            "date": "05.06.2020",
            "id": 10063
        },
        "distance": "43km",
        "climb": "173m",
        "decent": "85m",
        "organizer": "",
        "description": "Axel"
    },
    {
        "id": 65,
        "name": "Hambacher Forst - Aachen",
        "start": {
            "latitude": 50.9,
            "longitude": 6.433333,
            "name": "Hambacher Forst",
            "date": "07.06.2020",
            "id": "10065"
        },
        "end": {
            "latitude": 50.776093,
            "longitude": 6.083743,
            "name": "Aachen (XR, fff)",
            "date": "08.06.2020",
            "id": 10066
        },
        "distance": "33km",
        "climb": "170m",
        "decent": "93m",
        "organizer": "",
        "description": ""
    },
    {
        "id": 66,
        "name": "Aachen (XR, fff) - Maastricht",
        "start": {
            "latitude": 50.776093,
            "longitude": 6.083743,
            "name": "Aachen (XR, fff)",
            "date": "08.06.2020",
            "id": "10066"
        },
        "end": {
            "latitude": 50.851337,
            "longitude": 5.691326,
            "name": "Maastricht",
            "date": "09.06.2020",
            "id": 10067
        },
        "distance": "32km",
        "climb": "120m",
        "decent": "245m",
        "organizer": "",
        "description": "Axel"
    },
    {
        "id": 67,
        "name": "Maastricht - Hasselt",
        "start": {
            "latitude": 50.851337,
            "longitude": 5.691326,
            "name": "Maastricht",
            "date": "09.06.2020",
            "id": "10067"
        },
        "end": {
            "latitude": 50.93069,
            "longitude": 5.33248,
            "name": "Hasselt",
            "date": "10.06.2020",
            "id": 10068
        },
        "distance": "32km",
        "climb": "69m",
        "decent": "77m",
        "organizer": "",
        "description": ""
    },
    {
        "id": 72,
        "name": "Plukrijp Farm - Leuven",
        "start": {
            "latitude": 51.027128,
            "longitude": 4.723914,
            "name": "Plukrijp Farm",
            "date": "14.06.2020",
            "id": "10072"
        },
        "end": {
            "latitude": 50.878727,
            "longitude": 4.701241,
            "name": "Leuven",
            "date": "15.06.2020",
            "id": 10073
        },
        "distance": "20km",
        "climb": "22m",
        "decent": "10m",
        "organizer": "",
        "description": ""
    },
    {
        "id": 73,
        "name": "Leuven - Br\u00fcssel",
        "start": {
            "latitude": 50.878727,
            "longitude": 4.701241,
            "name": "Leuven",
            "date": "15.06.2020",
            "id": "10073"
        },
        "end": {
            "latitude": 50.846588,
            "longitude": 4.351872,
            "name": "Br\u00fcssel",
            "date": "16.06.2020",
            "id": 10074
        },
        "distance": "32,6km",
        "climb": "126m",
        "decent": "134m",
        "organizer": "",
        "description": ""
    }
]