<?xml version="1.0" encoding="UTF-8" standalone="no"?>
<!-- Created with Inkscape (http://www.inkscape.org/) -->

<svg
   xmlns:dc="http://purl.org/dc/elements/1.1/"
   xmlns:cc="http://creativecommons.org/ns#"
   xmlns:rdf="http://www.w3.org/1999/02/22-rdf-syntax-ns#"
   xmlns:svg="http://www.w3.org/2000/svg"
   xmlns="http://www.w3.org/2000/svg"
   xmlns:sodipodi="http://sodipodi.sourceforge.net/DTD/sodipodi-0.dtd"
   xmlns:inkscape="http://www.inkscape.org/namespaces/inkscape"
   width="24"
   height="24"
   viewBox="0 0 6.3499999 6.3500002"
   version="1.1"
   id="svg8"
   inkscape:version="0.92.4 (5da689c313, 2019-01-14)"
   sodipodi:docname="boat.svg">
  <defs
     id="defs2" />
  <sodipodi:namedview
     id="base"
     pagecolor="#ffffff"
     bordercolor="#666666"
     borderopacity="1.0"
     inkscape:pageopacity="0.0"
     inkscape:pageshadow="2"
     inkscape:zoom="7.9195959"
     inkscape:cx="15.887331"
     inkscape:cy="3.4720391"
     inkscape:document-units="px"
     inkscape:current-layer="layer1"
     showgrid="false"
     units="px"
     inkscape:window-width="960"
     inkscape:window-height="1001"
     inkscape:window-x="951"
     inkscape:window-y="-9"
     inkscape:window-maximized="0" />
  <metadata
     id="metadata5">
    <rdf:RDF>
      <cc:Work
         rdf:about="">
        <dc:format>image/svg+xml</dc:format>
        <dc:type
           rdf:resource="http://purl.org/dc/dcmitype/StillImage" />
        <dc:title></dc:title>
      </cc:Work>
    </rdf:RDF>
  </metadata>
  <g
     inkscape:label="Layer 1"
     inkscape:groupmode="layer"
     id="layer1"
     transform="translate(0,-290.64999)">
    <path
       id="path1064"
       style="fill:none;stroke:#000000;stroke-width:0.23633012;stroke-linecap:round;stroke-linejoin:round;stroke-miterlimit:4;stroke-dasharray:none;stroke-opacity:1"
       d="M 1.8883055,294.40654 H 0.51126339 m 2.06870211,0.9025 -0.6094161,-0.45887 c 0,0 0.275497,-0.43035 0.4422411,-0.61934 0.11298,-0.12239 0.291562,-0.28612 0.473844,-0.27504 0.130648,0.01 0.2668111,0.10895 0.311587,0.23402 0.06128,0.16891 -0.02703,0.37296 -0.115702,0.52134 -0.133405,0.22049 -0.501741,0.59621 -0.501741,0.59621 z m 1.3670179,-2.96708 0.478333,0.35944 m -0.3110558,-0.0816 -1.0252591,1.39659 m 2.5577279,-1.15568 -0.1385689,0.0679 c -1.2000471,0.64927 -3.137129,0.63163 -4.3883851,0.0138 l -0.17272201,-0.0817 -0.04902,0.0679 c -0.299622,0.4222 -0.136928,1.05359 0.33677001,1.29453 0.1840121,0.0958 0.5420331,0.17026 1.0131521,0.21661 0.05716,-0.0817 0.115688,-0.15628 0.165391,-0.21085 0.112981,-0.12238 0.291562,-0.28562 0.473842,-0.275 0.130649,0.01 0.2666661,0.10917 0.3115849,0.23401 0.03424,0.0949 0.021701,0.19046 -0.0077,0.28853 0.4479848,-8.9e-4 0.9637408,-0.0137 1.1907858,-0.0385 0.3848262,-0.0385 0.7632351,-0.12276 0.934747,-0.196 0.1817011,-0.0817 0.3582911,-0.26006 0.4474541,-0.45593 0.1252601,-0.27116 0.09395,-0.60712 -0.08168,-0.87258 z"
       inkscape:connector-curvature="0" />
  </g>
</svg>
