<?xml version="1.0" encoding="UTF-8" standalone="no"?>
<!-- Created with Inkscape (http://www.inkscape.org/) -->

<svg
   xmlns:dc="http://purl.org/dc/elements/1.1/"
   xmlns:cc="http://creativecommons.org/ns#"
   xmlns:rdf="http://www.w3.org/1999/02/22-rdf-syntax-ns#"
   xmlns:svg="http://www.w3.org/2000/svg"
   xmlns="http://www.w3.org/2000/svg"
   xmlns:sodipodi="http://sodipodi.sourceforge.net/DTD/sodipodi-0.dtd"
   xmlns:inkscape="http://www.inkscape.org/namespaces/inkscape"
   width="24"
   height="24"
   viewBox="0 0 6.3499999 6.3500002"
   version="1.1"
   id="svg8"
   inkscape:version="0.92.4 (5da689c313, 2019-01-14)"
   sodipodi:docname="donated_miles.svg">
  <defs
     id="defs2" />
  <sodipodi:namedview
     id="base"
     pagecolor="#ffffff"
     bordercolor="#666666"
     borderopacity="1.0"
     inkscape:pageopacity="0.0"
     inkscape:pageshadow="2"
     inkscape:zoom="7.9195959"
     inkscape:cx="-5.3890071"
     inkscape:cy="3.4720391"
     inkscape:document-units="px"
     inkscape:current-layer="layer1"
     showgrid="false"
     units="px"
     inkscape:window-width="958"
     inkscape:window-height="991"
     inkscape:window-x="952"
     inkscape:window-y="0"
     inkscape:window-maximized="0" />
  <metadata
     id="metadata5">
    <rdf:RDF>
      <cc:Work
         rdf:about="">
        <dc:format>image/svg+xml</dc:format>
        <dc:type
           rdf:resource="http://purl.org/dc/dcmitype/StillImage" />
        <dc:title></dc:title>
      </cc:Work>
    </rdf:RDF>
  </metadata>
  <g
     inkscape:label="Layer 1"
     inkscape:groupmode="layer"
     id="layer1"
     transform="translate(0,-290.64999)">
    <path
       inkscape:connector-curvature="0"
       id="path1165"
       style="fill:none;stroke:#000000;stroke-width:0.23633012;stroke-linecap:round;stroke-linejoin:round;stroke-miterlimit:4;stroke-dasharray:none;stroke-opacity:1"
       d="m 0.89144353,294.10281 0.45874397,-0.01 c 0,0 0.188552,-0.12265 0.321235,-0.16225 0.133405,-0.0386 0.522973,-0.17562 0.8990761,-0.0386 0.376094,0.1389 0.316605,0.18378 0.486359,0.207 0.170412,0.029 0.513862,-0.0137 0.577974,0.004 0.3728601,0.12237 0.2598629,0.60297 -0.05036,0.61934 -0.278392,0.004 -0.537271,0.004 -0.815503,0.004 m -1.88328407,0.39903 0.40480097,-9e-4 c 0,0 1.2445561,0.36619 1.8808421,0.48595 0.193041,0.0386 0.2560511,0.0679 0.3671179,0.01 0.3621011,-0.16755 1.84428,-1.04132 1.880839,-1.1693 0.136928,-0.23014 -0.05449,-0.52406 -0.2661369,-0.48595 -0.1306489,0.029 -1.220188,0.54583 -1.220188,0.54583 m -1.135843,-1.27486 v -1.23872 h 0.126599 l 0.427283,0.84261 0.422123,-0.84261 h 0.1198021 v 1.23872" />
  </g>
</svg>
