<?xml version="1.0" encoding="UTF-8" standalone="no"?>
<!-- Created with Inkscape (http://www.inkscape.org/) -->

<svg
   xmlns:dc="http://purl.org/dc/elements/1.1/"
   xmlns:cc="http://creativecommons.org/ns#"
   xmlns:rdf="http://www.w3.org/1999/02/22-rdf-syntax-ns#"
   xmlns:svg="http://www.w3.org/2000/svg"
   xmlns="http://www.w3.org/2000/svg"
   xmlns:sodipodi="http://sodipodi.sourceforge.net/DTD/sodipodi-0.dtd"
   xmlns:inkscape="http://www.inkscape.org/namespaces/inkscape"
   width="24"
   height="24"
   viewBox="0 0 6.3499999 6.3500002"
   version="1.1"
   id="svg8"
   inkscape:version="0.92.4 (5da689c313, 2019-01-14)"
   sodipodi:docname="hiking_boot.svg">
  <defs
     id="defs2" />
  <sodipodi:namedview
     id="base"
     pagecolor="#ffffff"
     bordercolor="#666666"
     borderopacity="1.0"
     inkscape:pageopacity="0.0"
     inkscape:pageshadow="2"
     inkscape:zoom="15.839192"
     inkscape:cx="11.489182"
     inkscape:cy="7.3625799"
     inkscape:document-units="px"
     inkscape:current-layer="layer1"
     showgrid="false"
     units="px"
     inkscape:window-width="960"
     inkscape:window-height="1001"
     inkscape:window-x="951"
     inkscape:window-y="-9"
     inkscape:window-maximized="0" />
  <metadata
     id="metadata5">
    <rdf:RDF>
      <cc:Work
         rdf:about="">
        <dc:format>image/svg+xml</dc:format>
        <dc:type
           rdf:resource="http://purl.org/dc/dcmitype/StillImage" />
        <dc:title></dc:title>
      </cc:Work>
    </rdf:RDF>
  </metadata>
  <g
     inkscape:label="Layer 1"
     inkscape:groupmode="layer"
     id="layer1"
     transform="translate(0,-290.64999)">
    <path
       inkscape:connector-curvature="0"
       id="path5195"
       style="opacity:1;fill:none;fill-opacity:1;fill-rule:nonzero;stroke:#000000;stroke-width:0.23636742;stroke-linecap:round;stroke-linejoin:round;stroke-miterlimit:4;stroke-dasharray:none;stroke-dashoffset:0;stroke-opacity:1;paint-order:normal"
       d="m 3.4123025,293.93382 c 0.5082789,0 0.5082789,0 0.5082789,0 m -0.3092688,0.34692 c 0.443061,0 0.443061,0 0.443061,0 m -0.237235,0.33919 c 0.4432059,0 0.4432059,0 0.4432059,0 m -3.33291396,1.55381 H 3.0874305 m 0.634456,-2.72244 a 0.16699235,0.16699235 0 0 1 -0.167999,0.16756 0.16699235,0.16699235 0 0 1 -0.168,-0.16756 0.16699235,0.16699235 0 0 1 0.168,-0.16464 0.16699235,0.16699235 0 0 1 0.167999,0.16464 z m 0.3722812,-0.48199 a 0.16699235,0.16699235 0 0 1 -0.1679991,0.16602 0.16699235,0.16699235 0 0 1 -0.16824,-0.16602 0.16699235,0.16699235 0 0 1 0.16824,-0.16894 0.16699235,0.16699235 0 0 1 0.1679991,0.16894 z m -2.0832222,0.10894 0.7405,0.54851 m 0.08034,-1.83856 a 0.18235112,0.18235112 0 0 1 -0.08034,-0.1795 0.18235112,0.18235112 0 0 1 0.1320561,-0.14709 0.18235112,0.18235112 0 0 1 0.188552,0.0546 m 0.269224,3.81441 a 1.8448578,1.8448578 0 0 1 -0.5885871,-1.68985 m 0.4708531,-2.14661 -1.826993,2.30861 m 3.467548,-1.31628 a 1.1563668,1.1563668 0 0 1 -1.0700481,-0.0679 1.1563668,1.1563668 0 0 1 -0.5602739,-0.91335 m 1.6464391,0.97185 c 0,0 -0.728245,0.93111 -0.9332482,1.20876 0.08713,0.28853 0.3115861,0.90795 0.400458,1.00051 0.177218,0.18621 0.6540662,0.15633 0.8861531,0.37684 0.118409,0.10894 0.1840169,0.28033 0.2112799,0.43953 0.016391,0.0949 -0.03136,0.30106 -0.03136,0.30106 m -4.0010389,-2.02534 0.7328779,0.54993 0.328715,0.50227 0.8276161,0.48596 0.4455219,0.0949 0.4082251,0.38501 1.2489111,0.0137 -0.3377372,0.38551 c -0.305989,9e-4 -1.0288019,-0.029 -1.4692458,-0.029 l -0.1452282,-0.36093 -0.945093,-0.48863 -0.243652,0.0951 -1.36267597,-0.95285 c 0.31959297,-0.46029 0.39379697,-0.51045 0.51208507,-0.68471 z" />
  </g>
</svg>
