<?xml version="1.0" encoding="UTF-8" standalone="no"?>
<!-- Created with Inkscape (http://www.inkscape.org/) -->

<svg
   xmlns:dc="http://purl.org/dc/elements/1.1/"
   xmlns:cc="http://creativecommons.org/ns#"
   xmlns:rdf="http://www.w3.org/1999/02/22-rdf-syntax-ns#"
   xmlns:svg="http://www.w3.org/2000/svg"
   xmlns="http://www.w3.org/2000/svg"
   xmlns:sodipodi="http://sodipodi.sourceforge.net/DTD/sodipodi-0.dtd"
   xmlns:inkscape="http://www.inkscape.org/namespaces/inkscape"
   width="24"
   height="24"
   viewBox="0 0 6.3499999 6.3500002"
   version="1.1"
   id="svg8"
   inkscape:version="0.92.4 (5da689c313, 2019-01-14)"
   sodipodi:docname="location.svg">
  <defs
     id="defs2" />
  <sodipodi:namedview
     id="base"
     pagecolor="#ffffff"
     bordercolor="#666666"
     borderopacity="1.0"
     inkscape:pageopacity="0.0"
     inkscape:pageshadow="2"
     inkscape:zoom="7.9195959"
     inkscape:cx="11.069883"
     inkscape:cy="6.4152016"
     inkscape:document-units="px"
     inkscape:current-layer="layer1"
     showgrid="false"
     units="px"
     inkscape:window-width="960"
     inkscape:window-height="1001"
     inkscape:window-x="951"
     inkscape:window-y="-9"
     inkscape:window-maximized="0" />
  <metadata
     id="metadata5">
    <rdf:RDF>
      <cc:Work
         rdf:about="">
        <dc:format>image/svg+xml</dc:format>
        <dc:type
           rdf:resource="http://purl.org/dc/dcmitype/StillImage" />
        <dc:title></dc:title>
      </cc:Work>
    </rdf:RDF>
  </metadata>
  <g
     inkscape:label="Layer 1"
     inkscape:groupmode="layer"
     id="layer1"
     transform="translate(0,-290.64999)">
    <path
       id="path1376"
       style="opacity:0.95999995;fill:none;fill-opacity:1;fill-rule:nonzero;stroke:#000000;stroke-width:0.23633012;stroke-linecap:round;stroke-linejoin:round;stroke-miterlimit:4;stroke-dasharray:none;stroke-dashoffset:0;stroke-opacity:1;paint-order:normal"
       d="m 3.8501595,293.11013 a 0.68160829,0.68160829 0 0 1 -0.681557,0.68196 0.68160829,0.68160829 0 0 1 -0.681828,-0.68196 0.68160829,0.68160829 0 0 1 0.681828,-0.68197 0.68160829,0.68160829 0 0 1 0.681557,0.68197 z m -0.817543,3.09497 c -0.04488,-0.0289 -0.177214,-0.23688 -0.439251,-0.71053 -0.874441,-1.57902 -1.169005,-2.01298 -1.138108,-2.49281 0.04489,-0.68469 0.521074,-1.29589 1.178678,-1.51294 0.365766,-0.0949 0.739408,-0.0949 1.049898,9.1e-4 0.6698511,0.22048 1.1683319,0.80857 1.2109351,1.50456 0.02703,0.43953 -0.218082,0.81262 -0.2816251,0.9515 -0.07488,0.15373 -1.207801,2.19764 -1.327996,2.25983 -0.08713,0.0385 -0.168243,0.0385 -0.252917,-9e-4 z"
       inkscape:connector-curvature="0" />
  </g>
</svg>
