<?xml version="1.0" encoding="UTF-8" standalone="no"?>
<!-- Created with Inkscape (http://www.inkscape.org/) -->

<svg
   xmlns:dc="http://purl.org/dc/elements/1.1/"
   xmlns:cc="http://creativecommons.org/ns#"
   xmlns:rdf="http://www.w3.org/1999/02/22-rdf-syntax-ns#"
   xmlns:svg="http://www.w3.org/2000/svg"
   xmlns="http://www.w3.org/2000/svg"
   xmlns:sodipodi="http://sodipodi.sourceforge.net/DTD/sodipodi-0.dtd"
   xmlns:inkscape="http://www.inkscape.org/namespaces/inkscape"
   width="24"
   height="24"
   viewBox="0 0 6.3499999 6.3500002"
   version="1.1"
   id="svg8"
   inkscape:version="0.92.4 (5da689c313, 2019-01-14)"
   sodipodi:docname="my_km.svg">
  <defs
     id="defs2" />
  <sodipodi:namedview
     id="base"
     pagecolor="#ffffff"
     bordercolor="#666666"
     borderopacity="1.0"
     inkscape:pageopacity="0.0"
     inkscape:pageshadow="2"
     inkscape:zoom="7.9195959"
     inkscape:cx="15.887331"
     inkscape:cy="3.4720391"
     inkscape:document-units="px"
     inkscape:current-layer="layer1"
     showgrid="false"
     units="px"
     inkscape:window-width="960"
     inkscape:window-height="1001"
     inkscape:window-x="951"
     inkscape:window-y="-9"
     inkscape:window-maximized="0" />
  <metadata
     id="metadata5">
    <rdf:RDF>
      <cc:Work
         rdf:about="">
        <dc:format>image/svg+xml</dc:format>
        <dc:type
           rdf:resource="http://purl.org/dc/dcmitype/StillImage" />
        <dc:title></dc:title>
      </cc:Work>
    </rdf:RDF>
  </metadata>
  <g
     inkscape:label="Layer 1"
     inkscape:groupmode="layer"
     id="layer1"
     transform="translate(0,-290.64999)">
    <path
       id="path1286"
       style="fill:none;stroke:#000000;stroke-width:0.23633012;stroke-linecap:round;stroke-linejoin:round;stroke-miterlimit:4;stroke-dasharray:none;stroke-opacity:1"
       d="m 2.8278705,294.805 c -0.354478,0 -0.639634,0.28565 -0.639634,0.63976 v 0.51048 h 1.974207 v -0.51048 c 0,-0.35411 -0.285288,-0.63976 -0.639634,-0.63976 z m 0.992866,-0.74047 c 0,0.35513 -0.288186,0.64386 -0.643309,0.64386 -0.355249,0 -0.643305,-0.28853 -0.643305,-0.64386 0,-0.35508 0.287895,-0.64385 0.643305,-0.64385 0.355299,0 0.643309,0.28851 0.643309,0.64385 z m -1.827455,-2.36007 v 1.2346 m 0.0111,-0.42217 0.81237,-0.81535 m 0.0053,1.23463 -0.559184,-0.66699 m 0.998044,0.66423 v -1.23866 h 0.126598 l 0.427284,0.84254 0.422122,-0.84254 h 0.119803 v 1.23866"
       inkscape:connector-curvature="0" />
  </g>
</svg>
