<?xml version="1.0" encoding="UTF-8" standalone="no"?>
<!-- Created with Inkscape (http://www.inkscape.org/) -->

<svg
   xmlns:dc="http://purl.org/dc/elements/1.1/"
   xmlns:cc="http://creativecommons.org/ns#"
   xmlns:rdf="http://www.w3.org/1999/02/22-rdf-syntax-ns#"
   xmlns:svg="http://www.w3.org/2000/svg"
   xmlns="http://www.w3.org/2000/svg"
   xmlns:sodipodi="http://sodipodi.sourceforge.net/DTD/sodipodi-0.dtd"
   xmlns:inkscape="http://www.inkscape.org/namespaces/inkscape"
   width="24"
   height="24"
   viewBox="0 0 6.3499999 6.3500002"
   version="1.1"
   id="svg8"
   inkscape:version="0.92.4 (5da689c313, 2019-01-14)"
   sodipodi:docname="race_bike.svg">
  <defs
     id="defs2" />
  <sodipodi:namedview
     id="base"
     pagecolor="#ffffff"
     bordercolor="#666666"
     borderopacity="1.0"
     inkscape:pageopacity="0.0"
     inkscape:pageshadow="2"
     inkscape:zoom="15.839192"
     inkscape:cx="11.489182"
     inkscape:cy="7.3625799"
     inkscape:document-units="px"
     inkscape:current-layer="layer1"
     showgrid="false"
     units="px"
     inkscape:window-width="960"
     inkscape:window-height="1001"
     inkscape:window-x="951"
     inkscape:window-y="-9"
     inkscape:window-maximized="0" />
  <metadata
     id="metadata5">
    <rdf:RDF>
      <cc:Work
         rdf:about="">
        <dc:format>image/svg+xml</dc:format>
        <dc:type
           rdf:resource="http://purl.org/dc/dcmitype/StillImage" />
        <dc:title></dc:title>
      </cc:Work>
    </rdf:RDF>
  </metadata>
  <g
     inkscape:label="Layer 1"
     inkscape:groupmode="layer"
     id="layer1"
     transform="translate(0,-290.64999)">
    <path
       inkscape:connector-curvature="0"
       id="path1126"
       style="fill:none;stroke:#000000;stroke-width:0.23636742;stroke-linecap:round;stroke-linejoin:round;stroke-miterlimit:4;stroke-dasharray:none;stroke-opacity:1"
       d="m 2.856907,294.33233 a 0.98845027,0.98845027 0 0 1 -0.9883761,0.98819 0.98845027,0.98845027 0 0 1 -0.98837364,-0.98819 0.98845027,0.98845027 0 0 1 0.98837364,-0.98827 0.98845027,0.98845027 0 0 1 0.9883761,0.98827 z m 3.1071272,0 a 0.98845027,0.98845027 0 0 1 -0.9883759,0.98819 0.98845027,0.98845027 0 0 1 -0.9883751,-0.98819 0.98845027,0.98845027 0 0 1 0.9883751,-0.98827 0.98845027,0.98845027 0 0 1 0.9883759,0.98827 z m -3.9071666,0.01 a 0.18840594,0.18840594 0 0 1 -0.1885563,0.18762 0.18840594,0.18840594 0 0 1 -0.1885535,-0.18762 0.18840594,0.18840594 0 0 1 0.1885535,-0.18765 0.18840594,0.18840594 0 0 1 0.1885563,0.18765 z m 3.1070997,0 a 0.18840594,0.18840594 0 0 1 -0.1885157,0.18762 0.18840594,0.18840594 0 0 1 -0.1885537,-0.18762 0.18840594,0.18840594 0 0 1 0.1885537,-0.18765 0.18840594,0.18840594 0 0 1 0.1885157,0.18765 z m -1.4623873,-0.004 a 0.27694948,0.27694948 0 0 1 -0.2768976,0.27644 0.27694948,0.27694948 0 0 1 -0.2768936,-0.27644 0.27694948,0.27694948 0 0 1 0.2768936,-0.27649 0.27694948,0.27694948 0 0 1 0.2768976,0.27649 z m -1.371547,-1.83844 0.9546205,1.58782 m -0.6909508,-1.14478 1.6078615,-0.004 m -0.3047828,-0.60713 0.9917808,1.83046 m -0.6698565,-1.22372 -0.6119963,1.17199 m -1.0130158,-1.14479 -0.6331012,1.21828 m 0.087134,0.20698 1.0971401,-0.004 m 0.7481192,-2.06048 0.6883643,0.01 c 0,0 0.1653826,0.0386 0.1749049,0.18907 0.00185,0.10893 -0.058534,0.18375 -0.2067435,0.2369 M 1.988383,292.49828 h 0.611996 m 0.7153213,2.42432 H 3.546953 M 0.38764906,294.868 H 1.6556119 m -0.93542234,0.45549 H 1.8720482" />
  </g>
</svg>
